[2017-08-31 00:43:54] FROM 127.0.0.1 BY GET_REQUEST REQUEST: json = , exchange =  RESPONSE: 
[2017-08-31 00:59:06] FROM 127.0.0.1 BY GET_REQUEST REQUEST: json, exchange RESPONSE: [{"ccy":"EUR","base_ccy":"UAH","buy":"30.10000","sale":"30.70000"},{"ccy":"RUR","base_ccy":"UAH","buy":"0.41500","sale":"0.45000"},{"ccy":"USD","base_ccy":"UAH","buy":"25.40000","sale":"25.70000"},{"ccy":"BTC","base_ccy":"USD","buy":"4399.4370","sale":"4862.5356"}]
[2017-08-31 01:00:36] FROM 127.0.0.1 BY GET_REQUEST REQUEST: {"json":"","exchange":""} RESPONSE: [{"ccy":"EUR","base_ccy":"UAH","buy":"30.10000","sale":"30.70000"},{"ccy":"RUR","base_ccy":"UAH","buy":"0.41500","sale":"0.45000"},{"ccy":"USD","base_ccy":"UAH","buy":"25.40000","sale":"25.70000"},{"ccy":"BTC","base_ccy":"USD","buy":"4401.0259","sale":"4864.2917"}]
[2017-08-31 01:02:41] FROM 127.0.0.1 BY GET_REQUEST REQUEST: {"json":"","exchange":""} RESPONSE: [{"ccy":"EUR","base_ccy":"UAH","buy":"30.10000","sale":"30.70000"},{"ccy":"RUR","base_ccy":"UAH","buy":"0.41500","sale":"0.45000"},{"ccy":"USD","base_ccy":"UAH","buy":"25.40000","sale":"25.70000"},{"ccy":"BTC","base_ccy":"USD","buy":"4401.0259","sale":"4864.2917"}]
[2017-08-31 01:07:29] FROM 127.0.0.1 BY GET_REQUEST REQUEST: {"json":"","exchange":""} RESPONSE: [{"ccy":"EUR","base_ccy":"UAH","buy":"30.10000","sale":"30.70000"},{"ccy":"RUR","base_ccy":"UAH","buy":"0.41500","sale":"0.45000"},{"ccy":"USD","base_ccy":"UAH","buy":"25.40000","sale":"25.70000"},{"ccy":"BTC","base_ccy":"USD","buy":"4399.5225","sale":"4862.6301"}]
[2017-08-31 01:20:54] FROM 127.0.0.1 BY POST_REQUEST REQUEST: {"json":"","exchange":""} RESPONSE: [{"ccy":"EUR","base_ccy":"UAH","buy":"30.10000","sale":"30.70000"},{"ccy":"RUR","base_ccy":"UAH","buy":"0.41500","sale":"0.45000"},{"ccy":"USD","base_ccy":"UAH","buy":"25.40000","sale":"25.70000"},{"ccy":"BTC","base_ccy":"USD","buy":"4394.6086","sale":"4857.1990"}]
[2017-08-31 01:22:44] FROM 127.0.0.1 BY POST_REQUEST REQUEST: {"json":"","exchange":""} RESPONSE: [{"ccy":"EUR","base_ccy":"UAH","buy":"30.10000","sale":"30.70000"},{"ccy":"RUR","base_ccy":"UAH","buy":"0.41500","sale":"0.45000"},{"ccy":"USD","base_ccy":"UAH","buy":"25.40000","sale":"25.70000"},{"ccy":"BTC","base_ccy":"USD","buy":"4394.6086","sale":"4857.1990"}]
[2017-08-31 01:22:59] FROM 127.0.0.1 BY POST_REQUEST REQUEST: {"json":"","exchange":""} RESPONSE: [{"ccy":"EUR","base_ccy":"UAH","buy":"30.10000","sale":"30.70000"},{"ccy":"RUR","base_ccy":"UAH","buy":"0.41500","sale":"0.45000"},{"ccy":"USD","base_ccy":"UAH","buy":"25.40000","sale":"25.70000"},{"ccy":"BTC","base_ccy":"USD","buy":"4394.6086","sale":"4857.1990"}]
[2017-08-31 01:23:33] FROM 127.0.0.1 BY GET_REQUEST REQUEST: {"json":"","exchange":""} RESPONSE: [{"ccy":"EUR","base_ccy":"UAH","buy":"30.10000","sale":"30.70000"},{"ccy":"RUR","base_ccy":"UAH","buy":"0.41500","sale":"0.45000"},{"ccy":"USD","base_ccy":"UAH","buy":"25.40000","sale":"25.70000"},{"ccy":"BTC","base_ccy":"USD","buy":"4394.6086","sale":"4857.1990"}]
[2017-08-31 01:25:30] FROM 127.0.0.1 BY POST_REQUEST REQUEST: {"json":"","exchange":""} RESPONSE: [{"ccy":"EUR","base_ccy":"UAH","buy":"30.10000","sale":"30.70000"},{"ccy":"RUR","base_ccy":"UAH","buy":"0.41500","sale":"0.45000"},{"ccy":"USD","base_ccy":"UAH","buy":"25.40000","sale":"25.70000"},{"ccy":"BTC","base_ccy":"USD","buy":"4393.6883","sale":"4856.1818"}]
[2017-08-31 01:29:57] FROM 127.0.0.1 BY POST_REQUEST REQUEST: {"json":"","exchange":""} RESPONSE: [{"ccy":"EUR","base_ccy":"UAH","buy":"30.10000","sale":"30.70000"},{"ccy":"RUR","base_ccy":"UAH","buy":"0.41500","sale":"0.45000"},{"ccy":"USD","base_ccy":"UAH","buy":"25.40000","sale":"25.70000"},{"ccy":"BTC","base_ccy":"USD","buy":"4395.3864","sale":"4858.0586"}]
[2017-08-31 01:31:15] FROM 127.0.0.1 BY POST_REQUEST REQUEST: {"json":"","exchange":""} RESPONSE: [{"ccy":"EUR","base_ccy":"UAH","buy":"30.10000","sale":"30.70000"},{"ccy":"RUR","base_ccy":"UAH","buy":"0.41500","sale":"0.45000"},{"ccy":"USD","base_ccy":"UAH","buy":"25.40000","sale":"25.70000"},{"ccy":"BTC","base_ccy":"USD","buy":"4395.3864","sale":"4858.0586"}]
[2017-08-31 01:32:04] FROM 127.0.0.1 BY POST_REQUEST REQUEST: {"json":"","exchange":""} RESPONSE: [{"ccy":"EUR","base_ccy":"UAH","buy":"30.10000","sale":"30.70000"},{"ccy":"RUR","base_ccy":"UAH","buy":"0.41500","sale":"0.45000"},{"ccy":"USD","base_ccy":"UAH","buy":"25.40000","sale":"25.70000"},{"ccy":"BTC","base_ccy":"USD","buy":"4395.3864","sale":"4858.0586"}]
[2017-08-31 01:34:31] FROM 127.0.0.1 BY GET_REQUEST REQUEST: {"json":"","exchange":""} RESPONSE: [{"ccy":"EUR","base_ccy":"UAH","buy":"30.10000","sale":"30.70000"},{"ccy":"RUR","base_ccy":"UAH","buy":"0.41500","sale":"0.45000"},{"ccy":"USD","base_ccy":"UAH","buy":"25.40000","sale":"25.70000"},{"ccy":"BTC","base_ccy":"USD","buy":"4399.8205","sale":"4862.9595"}]
[2017-08-31 01:35:04] FROM 127.0.0.1 BY GET_REQUEST REQUEST: {"json":"","exchange":""} RESPONSE: [{"ccy":"EUR","base_ccy":"UAH","buy":"30.10000","sale":"30.70000"},{"ccy":"RUR","base_ccy":"UAH","buy":"0.41500","sale":"0.45000"},{"ccy":"USD","base_ccy":"UAH","buy":"25.40000","sale":"25.70000"},{"ccy":"BTC","base_ccy":"USD","buy":"4399.8205","sale":"4862.9595"}]
[2017-08-31 01:35:34] FROM 127.0.0.1 BY GET_REQUEST REQUEST: [] RESPONSE: <error>invalid request</error>
[2017-08-31 01:36:45] FROM 127.0.0.1 BY GET_REQUEST REQUEST: {"json":"","exchange":""} RESPONSE: [{"ccy":"EUR","base_ccy":"UAH","buy":"30.10000","sale":"30.70000"},{"ccy":"RUR","base_ccy":"UAH","buy":"0.41500","sale":"0.45000"},{"ccy":"USD","base_ccy":"UAH","buy":"25.40000","sale":"25.70000"},{"ccy":"BTC","base_ccy":"USD","buy":"4399.8205","sale":"4862.9595"}]
[2017-08-31 01:37:34] FROM 127.0.0.1 BY GET_REQUEST REQUEST: {"json":"","exchange":""} RESPONSE: [{"ccy":"EUR","base_ccy":"UAH","buy":"30.10000","sale":"30.70000"},{"ccy":"RUR","base_ccy":"UAH","buy":"0.41500","sale":"0.45000"},{"ccy":"USD","base_ccy":"UAH","buy":"25.40000","sale":"25.70000"},{"ccy":"BTC","base_ccy":"USD","buy":"4399.6887","sale":"4862.8139"}]
[2017-08-31 01:37:51] FROM 127.0.0.1 BY GET_REQUEST REQUEST: {"json":"","exchange":""} RESPONSE: [{"ccy":"EUR","base_ccy":"UAH","buy":"30.10000","sale":"30.70000"},{"ccy":"RUR","base_ccy":"UAH","buy":"0.41500","sale":"0.45000"},{"ccy":"USD","base_ccy":"UAH","buy":"25.40000","sale":"25.70000"},{"ccy":"BTC","base_ccy":"USD","buy":"4399.6887","sale":"4862.8139"}]
[2017-08-31 01:38:50] FROM 127.0.0.1 BY GET_REQUEST REQUEST: {"json":"","exchange":""} RESPONSE: [{"ccy":"EUR","base_ccy":"UAH","buy":"30.10000","sale":"30.70000"},{"ccy":"RUR","base_ccy":"UAH","buy":"0.41500","sale":"0.45000"},{"ccy":"USD","base_ccy":"UAH","buy":"25.40000","sale":"25.70000"},{"ccy":"BTC","base_ccy":"USD","buy":"4399.6887","sale":"4862.8139"}]
[2017-08-31 01:38:55] FROM 127.0.0.1 BY GET_REQUEST REQUEST: {"json":"","exchange":""} RESPONSE: [{"ccy":"EUR","base_ccy":"UAH","buy":"30.10000","sale":"30.70000"},{"ccy":"RUR","base_ccy":"UAH","buy":"0.41500","sale":"0.45000"},{"ccy":"USD","base_ccy":"UAH","buy":"25.40000","sale":"25.70000"},{"ccy":"BTC","base_ccy":"USD","buy":"4399.6887","sale":"4862.8139"}]
[2017-08-31 01:40:18] FROM 127.0.0.1 BY GET_REQUEST REQUEST: {"json":"","exchange":""} RESPONSE: [{"ccy":"EUR","base_ccy":"UAH","buy":"30.10000","sale":"30.70000"},{"ccy":"RUR","base_ccy":"UAH","buy":"0.41500","sale":"0.45000"},{"ccy":"USD","base_ccy":"UAH","buy":"25.40000","sale":"25.70000"},{"ccy":"BTC","base_ccy":"USD","buy":"4399.6887","sale":"4862.8139"}]
[2017-08-31 01:44:52] FROM 127.0.0.1 BY GET_REQUEST REQUEST: {"json":"","exchange":""} RESPONSE: [{"ccy":"EUR","base_ccy":"UAH","buy":"30.10000","sale":"30.70000"},{"ccy":"RUR","base_ccy":"UAH","buy":"0.41500","sale":"0.45000"},{"ccy":"USD","base_ccy":"UAH","buy":"25.40000","sale":"25.70000"},{"ccy":"BTC","base_ccy":"USD","buy":"4401.9094","sale":"4865.2682"}]
[2017-08-31 01:47:46] FROM 127.0.0.1 BY GET_REQUEST REQUEST: {"json":"","exchange":""} RESPONSE: [{"ccy":"EUR","base_ccy":"UAH","buy":"30.10000","sale":"30.70000"},{"ccy":"RUR","base_ccy":"UAH","buy":"0.41500","sale":"0.45000"},{"ccy":"USD","base_ccy":"UAH","buy":"25.40000","sale":"25.70000"},{"ccy":"BTC","base_ccy":"USD","buy":"4401.9094","sale":"4865.2682"}]
[2017-08-31 01:49:29] FROM 127.0.0.1 BY GET_REQUEST REQUEST: {"json":"","exchange":""} RESPONSE: [{"ccy":"EUR","base_ccy":"UAH","buy":"30.10000","sale":"30.70000"},{"ccy":"RUR","base_ccy":"UAH","buy":"0.41500","sale":"0.45000"},{"ccy":"USD","base_ccy":"UAH","buy":"25.40000","sale":"25.70000"},{"ccy":"BTC","base_ccy":"USD","buy":"4402.6088","sale":"4866.0413"}]
[2017-08-31 01:50:59] FROM 127.0.0.1 BY GET_REQUEST REQUEST: {"json":"","exchange":""} RESPONSE: [{"ccy":"EUR","base_ccy":"UAH","buy":"30.10000","sale":"30.70000"},{"ccy":"RUR","base_ccy":"UAH","buy":"0.41500","sale":"0.45000"},{"ccy":"USD","base_ccy":"UAH","buy":"25.40000","sale":"25.70000"},{"ccy":"BTC","base_ccy":"USD","buy":"4402.6088","sale":"4866.0413"}]
[2017-08-31 02:11:15] FROM 127.0.0.1 BY GET_REQUEST REQUEST: {"json":"","exchange":""} RESPONSE: [{"ccy":"EUR","base_ccy":"UAH","buy":"30.10000","sale":"30.70000"},{"ccy":"RUR","base_ccy":"UAH","buy":"0.41500","sale":"0.45000"},{"ccy":"USD","base_ccy":"UAH","buy":"25.40000","sale":"25.70000"},{"ccy":"BTC","base_ccy":"USD","buy":"4410.3679","sale":"4874.6171"}]
[2017-08-31 02:13:03] FROM 127.0.0.1 BY GET_REQUEST REQUEST: {"json":"","exchange":""} RESPONSE: [{"ccy":"EUR","base_ccy":"UAH","buy":"30.10000","sale":"30.70000"},{"ccy":"RUR","base_ccy":"UAH","buy":"0.41500","sale":"0.45000"},{"ccy":"USD","base_ccy":"UAH","buy":"25.40000","sale":"25.70000"},{"ccy":"BTC","base_ccy":"USD","buy":"4410.3679","sale":"4874.6171"}]
[2017-08-31 02:15:30] FROM 127.0.0.1 BY GET_REQUEST REQUEST: {"json":"","exchange":""} RESPONSE: [{"ccy":"EUR","base_ccy":"UAH","buy":"30.10000","sale":"30.70000"},{"ccy":"RUR","base_ccy":"UAH","buy":"0.41500","sale":"0.45000"},{"ccy":"USD","base_ccy":"UAH","buy":"25.40000","sale":"25.70000"},{"ccy":"BTC","base_ccy":"USD","buy":"4411.8333","sale":"4876.2368"}]
[2017-08-31 02:19:07] FROM 127.0.0.1 BY GET_REQUEST REQUEST: {"json":"","exchange":""} RESPONSE: [{"ccy":"EUR","base_ccy":"UAH","buy":"30.10000","sale":"30.70000"},{"ccy":"RUR","base_ccy":"UAH","buy":"0.41500","sale":"0.45000"},{"ccy":"USD","base_ccy":"UAH","buy":"25.40000","sale":"25.70000"},{"ccy":"BTC","base_ccy":"USD","buy":"4410.0817","sale":"4874.3009"}]
[2017-08-31 02:19:43] FROM 127.0.0.1 BY GET_REQUEST REQUEST: {"json":"","exchange":""} RESPONSE: [{"ccy":"EUR","base_ccy":"UAH","buy":"30.10000","sale":"30.70000"},{"ccy":"RUR","base_ccy":"UAH","buy":"0.41500","sale":"0.45000"},{"ccy":"USD","base_ccy":"UAH","buy":"25.40000","sale":"25.70000"},{"ccy":"BTC","base_ccy":"USD","buy":"4410.0817","sale":"4874.3009"}]
[2017-08-31 02:19:57] FROM 127.0.0.1 BY GET_REQUEST REQUEST: {"json":"","exchange":""} RESPONSE: [{"ccy":"EUR","base_ccy":"UAH","buy":"30.10000","sale":"30.70000"},{"ccy":"RUR","base_ccy":"UAH","buy":"0.41500","sale":"0.45000"},{"ccy":"USD","base_ccy":"UAH","buy":"25.40000","sale":"25.70000"},{"ccy":"BTC","base_ccy":"USD","buy":"4410.0817","sale":"4874.3009"}]
[2017-08-31 02:20:49] FROM 127.0.0.1 BY GET_REQUEST REQUEST: {"json":"","exchange":""} RESPONSE: [{"ccy":"EUR","base_ccy":"UAH","buy":"30.10000","sale":"30.70000"},{"ccy":"RUR","base_ccy":"UAH","buy":"0.41500","sale":"0.45000"},{"ccy":"USD","base_ccy":"UAH","buy":"25.40000","sale":"25.70000"},{"ccy":"BTC","base_ccy":"USD","buy":"4410.0817","sale":"4874.3009"}]
[2017-08-31 02:22:09] FROM 127.0.0.1 BY POST_REQUEST REQUEST: {"json":"","exchange":""} RESPONSE: [{"ccy":"EUR","base_ccy":"UAH","buy":"30.10000","sale":"30.70000"},{"ccy":"RUR","base_ccy":"UAH","buy":"0.41500","sale":"0.45000"},{"ccy":"USD","base_ccy":"UAH","buy":"25.40000","sale":"25.70000"},{"ccy":"BTC","base_ccy":"USD","buy":"4409.8264","sale":"4874.0186"}]
[2017-08-31 02:32:47] FROM 127.0.0.1 BY POST_REQUEST REQUEST: {"json":"","exchange":""} RESPONSE: [{"ccy":"EUR","base_ccy":"UAH","buy":"30.10000","sale":"30.70000"},{"ccy":"RUR","base_ccy":"UAH","buy":"0.41500","sale":"0.45000"},{"ccy":"USD","base_ccy":"UAH","buy":"25.40000","sale":"25.70000"},{"ccy":"BTC","base_ccy":"USD","buy":"4409.5450","sale":"4873.7076"}]
[2017-08-31 02:33:09] FROM 127.0.0.1 BY POST_REQUEST REQUEST: {"json":"","exchange":""} RESPONSE: [{"ccy":"EUR","base_ccy":"UAH","buy":"30.10000","sale":"30.70000"},{"ccy":"RUR","base_ccy":"UAH","buy":"0.41500","sale":"0.45000"},{"ccy":"USD","base_ccy":"UAH","buy":"25.40000","sale":"25.70000"},{"ccy":"BTC","base_ccy":"USD","buy":"4409.5450","sale":"4873.7076"}]
[2017-08-31 02:33:34] FROM 127.0.0.1 BY POST_REQUEST REQUEST: {"json":"","exchange":""} RESPONSE: [{"ccy":"EUR","base_ccy":"UAH","buy":"30.10000","sale":"30.70000"},{"ccy":"RUR","base_ccy":"UAH","buy":"0.41500","sale":"0.45000"},{"ccy":"USD","base_ccy":"UAH","buy":"25.40000","sale":"25.70000"},{"ccy":"BTC","base_ccy":"USD","buy":"4409.5450","sale":"4873.7076"}]
[2017-08-31 02:34:58] FROM 127.0.0.1 BY POST_REQUEST REQUEST: {"json":"","exchange":""} RESPONSE: [{"ccy":"EUR","base_ccy":"UAH","buy":"30.10000","sale":"30.70000"},{"ccy":"RUR","base_ccy":"UAH","buy":"0.41500","sale":"0.45000"},{"ccy":"USD","base_ccy":"UAH","buy":"25.40000","sale":"25.70000"},{"ccy":"BTC","base_ccy":"USD","buy":"4409.5450","sale":"4873.7076"}]
[2017-08-31 02:35:18] FROM 127.0.0.1 BY GET_REQUEST REQUEST: {"json":"","exchange":""} RESPONSE: [{"ccy":"EUR","base_ccy":"UAH","buy":"30.10000","sale":"30.70000"},{"ccy":"RUR","base_ccy":"UAH","buy":"0.41500","sale":"0.45000"},{"ccy":"USD","base_ccy":"UAH","buy":"25.40000","sale":"25.70000"},{"ccy":"BTC","base_ccy":"USD","buy":"4409.5450","sale":"4873.7076"}]
[2017-08-31 02:35:19] FROM 127.0.0.1 BY POST_REQUEST REQUEST: {"json":"","exchange":""} RESPONSE: [{"ccy":"EUR","base_ccy":"UAH","buy":"30.10000","sale":"30.70000"},{"ccy":"RUR","base_ccy":"UAH","buy":"0.41500","sale":"0.45000"},{"ccy":"USD","base_ccy":"UAH","buy":"25.40000","sale":"25.70000"},{"ccy":"BTC","base_ccy":"USD","buy":"4409.5450","sale":"4873.7076"}]
[2017-08-31 13:44:30] FROM 127.0.0.1 BY GET_REQUEST REQUEST: {"json":"","exchange":""} RESPONSE: [{"ccy":"EUR","base_ccy":"UAH","buy":"30.10000","sale":"30.70000"},{"ccy":"RUR","base_ccy":"UAH","buy":"0.41500","sale":"0.45000"},{"ccy":"USD","base_ccy":"UAH","buy":"25.45000","sale":"25.75000"},{"ccy":"BTC","base_ccy":"USD","buy":"4488.1206","sale":"4960.5544"}]
[2017-08-31 13:44:35] FROM 127.0.0.1 BY GET_REQUEST REQUEST: {"json":"","exchange":""} RESPONSE: [{"ccy":"EUR","base_ccy":"UAH","buy":"30.10000","sale":"30.70000"},{"ccy":"RUR","base_ccy":"UAH","buy":"0.41500","sale":"0.45000"},{"ccy":"USD","base_ccy":"UAH","buy":"25.45000","sale":"25.75000"},{"ccy":"BTC","base_ccy":"USD","buy":"4488.1206","sale":"4960.5544"}]
[2017-08-31 13:44:36] FROM 127.0.0.1 BY POST_REQUEST REQUEST: {"json":"","exchange":""} RESPONSE: [{"ccy":"EUR","base_ccy":"UAH","buy":"30.10000","sale":"30.70000"},{"ccy":"RUR","base_ccy":"UAH","buy":"0.41500","sale":"0.45000"},{"ccy":"USD","base_ccy":"UAH","buy":"25.45000","sale":"25.75000"},{"ccy":"BTC","base_ccy":"USD","buy":"4488.1206","sale":"4960.5544"}]
[2017-08-31 14:01:03] FROM 127.0.0.1 BY GET_REQUEST REQUEST: {"json":"","exchange":""} RESPONSE: [{"ccy":"EUR","base_ccy":"UAH","buy":"30.10000","sale":"30.70000"},{"ccy":"RUR","base_ccy":"UAH","buy":"0.41500","sale":"0.45000"},{"ccy":"USD","base_ccy":"UAH","buy":"25.45000","sale":"25.75000"},{"ccy":"BTC","base_ccy":"USD","buy":"4478.9187","sale":"4950.3839"}]
